…
`tibble` 객체를 확장 시킨 `tidyverse`용 데이터 프레임. y변수를 선언할 때 어떤 열을 `index`로 할 것인지 선언해 줌. `[1Y]`라는 것을 보고 관찰값이 1년 단위 관측되었다는 것을 알 수 있음.

`tsibbledata` 패키지에 들어있는 `olympic_running` 데이터를 살펴보자.


```r
olympic_running
```

```
#> # A tsibble: 312 x 4 [4Y]
#> # Key:       Length, Sex [14]
#>     Year Length Sex    Time
#>    <int>  <int> <chr> <dbl>
#>  1  1896    100 men    12  
#>  2  1900    100 men    11  
#>  3  1904    100 men    11  
#>  4  1908    100 men    10.8
#>  5  1912    100 men    10.8
#>  6  1916    100 men    NA  
#>  7  1920    100 men    10.8
#>  8  1924    100 men    10.6
#>  9  1928    100 men    10.8
#> 10  1932    100 men    10.3
#> # ... with 302 more rows
```
…
`prison` 변수에는 csv 파일로부터 불러온 시계열 정보가 들어있다. 날짜정보가 들어있는 첫번째 열을 인덱스로, count 정보를 제외한 나머지 열들을 key로 설정하여 tsibble로 바꿔보도록 하자.


```r
prison %<>% 
  janitor::clean_names() %>% 
  mutate(quarter = yearquarter(date),
         .keep = "unused") %>% 
  as_tsibble(key = state:indigenous,
             index = quarter)
prison
```

```
#> # A tsibble: 3,072 x 6 [1Q]
#> # Key:       state, gender, legal, indigenous [64]
#>    state gender legal    indigenous count quarter
#>    <chr> <chr>  <chr>    <chr>      <dbl>   <qtr>
#>  1 ACT   Female Remanded ATSI           0 2005 Q1
#>  2 ACT   Female Remanded ATSI           1 2005 Q2
#>  3 ACT   Female Remanded ATSI           0 2005 Q3
#>  4 ACT   Female Remanded ATSI           0 2005 Q4
#>  5 ACT   Female Remanded ATSI           1 2006 Q1
#>  6 ACT   Female Remanded ATSI           1 2006 Q2
#>  7 ACT   Female Remanded ATSI           1 2006 Q3
#>  8 ACT   Female Remanded ATSI           0 2006 Q4
#>  9 ACT   Female Remanded ATSI           0 2007 Q1
#> 10 ACT   Female Remanded ATSI           1 2007 Q2
#> # ... with 3,062 more rows
```
…
