…
```r
library(zoo)
white.noise <- tsibble(t = seq_len(100), y = rnorm(100), index = t)

# moving average with rollmean
white.noise.r <- white.noise %>%
  mutate(yavg = rollmean(y, k = 5, align = "right", fill = NA ))

white.noise.r
```

```
#> # A tsibble: 100 x 3 [1]
#>        t      y    yavg
#>    <int>  <dbl>   <dbl>
#>  1     1  0.534 NA     
#>  2     2 -0.362 NA     
#>  3     3 -2.00  NA     
#>  4     4  1.20  NA     
#>  5     5  0.988  0.0712
#>  6     6 -0.425 -0.121 
#>  7     7 -0.917 -0.232 
#>  8     8  1.11   0.391 
#>  9     9  0.835  0.318 
#> 10    10 -0.943 -0.0678
#> # ... with 90 more rows
```
…
