…
<img src="03-time-series-decomposition_files/figure-html/unnamed-chunk-4-1.png" width="672" />

```r
lambda <- aus_production %>%
  features(Gas, features = guerrero) %>%
  pull(lambda_guerrero)

aus_production %>%
  mutate(boxcox = box_cox(Gas, lambda))
```

```
#> # A tsibble: 218 x 8 [1Q]
#>    Quarter  Beer Tobacco Bricks Cement Electricity   Gas boxcox
#>      <qtr> <dbl>   <dbl>  <dbl>  <dbl>       <dbl> <dbl>  <dbl>
#>  1 1956 Q1   284    5225    189    465        3923     5   1.78
#>  2 1956 Q2   213    5178    204    532        4436     6   2.00
#>  3 1956 Q3   227    5297    208    561        4806     7   2.19
#>  4 1956 Q4   308    5681    197    570        4418     6   2.00
#>  5 1957 Q1   262    5577    187    529        4339     5   1.78
#>  6 1957 Q2   228    5651    214    604        4811     7   2.19
#>  7 1957 Q3   236    5317    227    603        5259     7   2.19
#>  8 1957 Q4   320    6152    222    582        4735     6   2.00
#>  9 1958 Q1   272    5758    199    554        4608     5   1.78
#> 10 1958 Q2   233    5641    229    620        5196     7   2.19
#> # ... with 208 more rows
```
…
```r
us_retail_employment <- us_employment %>%
  filter(year(Month) >= 1990, Title == "Retail Trade")

classical_decomp<- us_retail_employment %>%
  model(
    classical_decomposition(Employed , type = "additive") #Employed ~ season(7)
  ) %>%
  components() %>% as_tsibble()

classical_decomp
```

```
#> # A tsibble: 357 x 8 [1M]
#> # Key:       Series_ID, .model [1]
#>    Series_ID     .model      Month Employed  trend seasonal random season_adjust
#>    <chr>         <chr>       <mth>    <dbl>  <dbl>    <dbl>  <dbl>         <dbl>
#>  1 CEU4200000001 "classic~  1990 1   13256.    NA    -75.5   NA           13331.
#>  2 CEU4200000001 "classic~  1990 2   12966.    NA   -273.    NA           13239.
#>  3 CEU4200000001 "classic~  1990 3   12938.    NA   -253.    NA           13191.
#>  4 CEU4200000001 "classic~  1990 4   13012.    NA   -190.    NA           13203.
#>  5 CEU4200000001 "classic~  1990 5   13108.    NA    -88.9   NA           13197.
#>  6 CEU4200000001 "classic~  1990 6   13183.    NA    -10.4   NA           13193.
#>  7 CEU4200000001 "classic~  1990 7   13170. 13178.   -13.3    5.65        13183.
#>  8 CEU4200000001 "classic~  1990 8   13160. 13161.    -9.99   8.80        13169.
#>  9 CEU4200000001 "classic~  1990 9   13113. 13141.   -87.4   59.9         13201.
#> 10 CEU4200000001 "classic~ 1990 10   13185. 13117.    34.6   33.8         13151.
#> # ... with 347 more rows
```
…
