Chapter 2 시계열 모델의 기초 | 시계열 공략집 with R
…
이동평균 모형은 아래와 같이 정의된다.

\(\{Y_t = \frac{1}{2} (e_t + e_{t-1}): t = 2, 3, \dots \} \\ \mu_t = E[Y_t] = \frac{1}{2} (E[e_t] + E[e_{t-1}] = 0 \\ Var(Y_t) = \frac{1}{4} Var(e_t) + \frac{1}{4} Var(e_{t-1}) = \frac{1}{4} \sigma_e^2 + \frac{1}{4} \sigma_e^2 = \frac{1}{2} \sigma_e^2 \\ Cov(Y_t, Y_{t-1}) = Cov(\frac{1}{2} (e_t + e_{t-1}), \frac{1}{2} (e_{t-1} + e_{t-2})) = \cfrac{1}{4}\sigma_e^2 \\ Cov(Y_t, Y_s) = Cov(\frac{1}{2} (e_t + e_{t-1}), \frac{1}{2} (e_{s} + e_{s-1})) = 0 \quad \rm for \quad |t-s| > 1 \\ Corr(Y_t, Y_t) = 1 \\ Corr(Y_t, Y_{t-1}) = 0.5 \\ Corr(Y_t, Y_s) = 0 \quad for \quad |t-s|>1\)

library(zoo)
white.noise <- tsibble(t = seq_len(100), y = rnorm(100), index = t)

# moving average with rollmean
white.noise.r <- white.noise %>%
  mutate(yavg = rollmean(y, k = 5, align = "right", fill = NA ))

white.noise.r

#> # A tsibble: 100 x 3 [1]
#>        t       y     yavg
#>    <int>   <dbl>    <dbl>
#>  1     1  1.25   NA      
#>  2     2  1.48   NA      
#>  3     3  0.914  NA      
#>  4     4  0.820  NA      
#>  5     5 -0.0503  0.884  
#>  6     6 -0.549   0.524  
#>  7     7 -0.598   0.107  
#>  8     8  0.162  -0.0432 
#>  9     9  0.0487 -0.197  
#> 10    10  0.964   0.00546
#> # ... with 90 more rows
…
