Chapter 4 예측을 위한 도구상자 | 시계열 공략집 with R
…
모형의 구조를 정의하는데 사용하는 특정 함수는 모형마다 다르게
정의된다(각 모형이 다른 구조를 지원할 수 있기 때문에). 각 모형에 대한
특정 함수 목록과 설명은 “Special” 챕터에서 볼 수 있다.

4.1.4 모델 학습

적절한 모형이 지정되면 일부 데이터에 대해 학습을 진행한다. model()
함수를 이용해서 하나 이상의 모델의 을 적합시킬 수 있다.

fit <- gdppc %>%
  model(trend_model = TSLM(GDP_per_capita ~ trend()))
fit

#> # A mable: 263 x 2
#> # Key:     Country [263]
#>    Country             trend_model
#>    <fct>                   <model>
#>  1 Afghanistan              <TSLM>
#>  2 Albania                  <TSLM>
#>  3 Algeria                  <TSLM>
#>  4 American Samoa           <TSLM>
#>  5 Andorra                  <TSLM>
#>  6 Angola                   <TSLM>
#>  7 Antigua and Barbuda      <TSLM>
#>  8 Arab World               <TSLM>
#>  9 Argentina                <TSLM>
#> 10 Armenia                  <TSLM>
#> # … with 253 more rows
…
4.1.6 예측

적절한 모형을 선택하고, 추정 및 확인을 한후 예측을 할 때 사용하는 것이
forecast()이다. 이 함수를 사용하는 가장 쉬운 방법은 예측할 미래 관측치
수를 지정하는 것이다. 예를 들어, 다음 10개의 관측치에 대한 예측값은
h=10을 이용해서 생성할 수 있다. 또다른 예시로 2년 후 미래에 대한
예측값은 h = "2 years"를 이용해서 생성할 수 있다. 또는 예측할 미래
기간에 해당하는 데이터셋을 사전에 만드는 것이 편리할 수도 있다. 모델에
외생변수와 같은 데이터의 추가 정보를 사용할 때 일반적으로 필요하다.
모델에 필요한 추가적인 데이터는 예측할 관측 데이터셋에 포함될 수 있다.

fit %>% forecast(h = "3 years")

#> # A fable: 789 x 5 [1Y]
#> # Key:     Country, .model [263]
#>    Country        .model       Year   GDP_per_capita  .mean
#>    <fct>          <chr>       <dbl>           <dist>  <dbl>
#>  1 Afghanistan    trend_model  2018     N(526, 9653)   526.
#>  2 Afghanistan    trend_model  2019     N(534, 9689)   534.
#>  3 Afghanistan    trend_model  2020     N(542, 9727)   542.
#>  4 Albania        trend_model  2018  N(4716, 476419)  4716.
#>  5 Albania        trend_model  2019  N(4867, 481086)  4867.
#>  6 Albania        trend_model  2020  N(5018, 486012)  5018.
#>  7 Algeria        trend_model  2018  N(4410, 643094)  4410.
#>  8 Algeria        trend_model  2019  N(4489, 645311)  4489.
#>  9 Algeria        trend_model  2020  N(4568, 647602)  4568.
#> 10 American Samoa trend_model  2018 N(12491, 652926) 12491.
#> # … with 779 more rows
…
4.2 몇가지 간단한 예측 방법

일부 예측 방법은 매우 간단하고 효과적이다. 이 책 전체에서 벤치마크로 네
가지 간단한 예측방법을 사용할 것이다. 이를 설명하기 위해 먼저 1970년부터
2004년까지 분기별 호주 벽돌 생산량 데이터를 사용할 것이다.

aus_production

#> # A tsibble: 218 x 7 [1Q]
#>    Quarter  Beer Tobacco Bricks Cement Electricity   Gas
#>      <qtr> <dbl>   <dbl>  <dbl>  <dbl>       <dbl> <dbl>
#>  1 1956 Q1   284    5225    189    465        3923     5
#>  2 1956 Q2   213    5178    204    532        4436     6
#>  3 1956 Q3   227    5297    208    561        4806     7
#>  4 1956 Q4   308    5681    197    570        4418     6
#>  5 1957 Q1   262    5577    187    529        4339     5
#>  6 1957 Q2   228    5651    214    604        4811     7
#>  7 1957 Q3   236    5317    227    603        5259     7
#>  8 1957 Q4   320    6152    222    582        4735     6
#>  9 1958 Q1   272    5758    199    554        4608     5
#> 10 1958 Q2   233    5641    229    620        5196     7
#> # … with 208 more rows

filter_index(.data, …)

.data : tsibble

… : start ~ end 또는 ~ end(. ~ end), start ~ .

bricks <- aus_production %>%
  filter_index("1970 Q1" ~ "2004 Q4") %>%
  select(Bricks)

bricks

#> # A tsibble: 140 x 2 [1Q]
#>    Bricks Quarter
#>     <dbl>   <qtr>
#>  1    386 1970 Q1
#>  2    428 1970 Q2
#>  3    434 1970 Q3
#>  4    417 1970 Q4
#>  5    385 1971 Q1
#>  6    433 1971 Q2
#>  7    453 1971 Q3
#>  8    436 1971 Q4
#>  9    399 1972 Q1
#> 10    461 1972 Q2
#> # … with 130 more rows
…
#> # A mable: 1 x 3
#>      Mean   Naïve `Seasonal naïve`
#>   <model> <model>          <model>
#> 1  <MEAN> <NAIVE>         <SNAIVE>

# Generate forecasts for 14 quarters
beer_fc <- beer_fit %>% forecast(h = 14)
beer_fc

#> # A fable: 42 x 4 [1Q]
#> # Key:     .model [3]
#>    .model Quarter         Beer .mean
#>    <chr>    <qtr>       <dist> <dbl>
#>  1 Mean   2007 Q1 N(436, 1996)  436.
#>  2 Mean   2007 Q2 N(436, 1996)  436.
#>  3 Mean   2007 Q3 N(436, 1996)  436.
#>  4 Mean   2007 Q4 N(436, 1996)  436.
#>  5 Mean   2008 Q1 N(436, 1996)  436.
#>  6 Mean   2008 Q2 N(436, 1996)  436.
#>  7 Mean   2008 Q3 N(436, 1996)  436.
#>  8 Mean   2008 Q4 N(436, 1996)  436.
#>  9 Mean   2009 Q1 N(436, 1996)  436.
#> 10 Mean   2009 Q2 N(436, 1996)  436.
#> # … with 32 more rows
…
4.3.2 residuals

시계열 모형에서 잔차는 모델을 적합시킨 후에 남은 것을 의미한다. 즉, 잔차는 관측값과 적합값의 차이로 표현된다.

\[
e_t = y_t - \hat{y_t}
\]
만약 모형에 변환이 사용된 경우, 변환된 척도에서 잔차를 확인하는 것이 유용할 수 있다. 이것을 주로 “innovation residuals”라고 부른다. 예를 들어, 데이터에 로그변환을 했다고 가정했을 때(\(w_t = log(y_t)\)), innovation residuals은 \(w_t - \hat{w_t}\)로 표기할 수 있고, 반면에 regular residuals는 \(y_t - \hat{y}_t\)로 표기할 수 있다. 변환을 수행하지 않았다면 innovation residuals와 regular residuals는 동일하며, 이 경우 우리는 단순하게 “residuals”라고 표기한다.

모델로부터 적합값과 잔차는 augument() 함수를 이용해서 구할 수 있다. 섹션 5.2 맥주 생산량 예시에서, 우리는 beer_fit으로 적합시킨 모형을 저장했다. 그래서 단순하게 augument()를 이용해서 모든 모형에 대한 적합값과 잔차를 계산할 수 있다.

augment(beer_fit)

#> # A tsibble: 180 x 6 [1Q]
#> # Key:       .model [3]
#>    .model Quarter  Beer .fitted .resid .innov
#>    <chr>    <qtr> <dbl>   <dbl>  <dbl>  <dbl>
#>  1 Mean   1992 Q1   443    436.   6.55   6.55
#>  2 Mean   1992 Q2   410    436. -26.4  -26.4 
#>  3 Mean   1992 Q3   420    436. -16.4  -16.4 
#>  4 Mean   1992 Q4   532    436.  95.6   95.6 
#>  5 Mean   1993 Q1   433    436.  -3.45  -3.45
#>  6 Mean   1993 Q2   421    436. -15.4  -15.4 
#>  7 Mean   1993 Q3   410    436. -26.4  -26.4 
#>  8 Mean   1993 Q4   512    436.  75.6   75.6 
#>  9 Mean   1994 Q1   449    436.  12.6   12.6 
#> 10 Mean   1994 Q2   381    436. -55.4  -55.4 
#> # … with 170 more rows
…
추가적인 두 가지 특성은 예측 구간을 쉽게 계산할 수 있게 만든다(섹션 5.5의 예시 참고). 그러나 이러한 특성을 만족하지 않는 예측 방법을 반드시 개선할 수 있는 것은 아니다. 보통 박스-콕스 변환은 이러한 특성을 만족시키기 위해 도움이 될 수 있지만, 일반적으로 등분산성과 정규성을 만족하기 위해 할 수 있는 것은 거의 없다. 대신에, 예측 구간을 얻기 위한 대안적인 접근이 필요하다. 섹션 5.5에 정규성을 만족하지 않는 “innovation residuals”을 다루는 방법에 대해 알아본다.

4.5 예 : 구글 일일 종가 예측

주식시장 가격과 지수의 경우, 가장 좋은 예측 방법은 주로 naive method이다. 즉, 각 예측값은 단순하게 마지막 관측치 값과 동일하다. (\(\hat{y}_t = y_{t-1}\)). 따라서, 잔차는 단순하게 인접 관측치 사이의 차이와 동일하다.

\[
e_t = y_t - \hat{y}_t = y_t - y_{t-1}
\]
다음 그래프는 2015년의 구글 일일 종가의 추이를 보여준다. 가장 큰 폭의 상승은 2015년 7월 17일에 해당하며, 예상치 못한 2분기 실적으로 인해 16& 상승했다.

gafa_stock

#> # A tsibble: 5,032 x 8 [!]
#> # Key:       Symbol [4]
#>    Symbol Date        Open  High   Low Close Adj_Close    Volume
#>    <chr>  <date>     <dbl> <dbl> <dbl> <dbl>     <dbl>     <dbl>
#>  1 AAPL   2014-01-02  79.4  79.6  78.9  79.0      67.0  58671200
#>  2 AAPL   2014-01-03  79.0  79.1  77.2  77.3      65.5  98116900
#>  3 AAPL   2014-01-06  76.8  78.1  76.2  77.7      65.9 103152700
#>  4 AAPL   2014-01-07  77.8  78.0  76.8  77.1      65.4  79302300
#>  5 AAPL   2014-01-08  77.0  77.9  77.0  77.6      65.8  64632400
#>  6 AAPL   2014-01-09  78.1  78.1  76.5  76.6      65.0  69787200
#>  7 AAPL   2014-01-10  77.1  77.3  75.9  76.1      64.5  76244000
#>  8 AAPL   2014-01-13  75.7  77.5  75.7  76.5      64.9  94623200
#>  9 AAPL   2014-01-14  76.9  78.1  76.8  78.1      66.1  83140400
#> 10 AAPL   2014-01-15  79.1  80.0  78.8  79.6      67.5  97909700
#> # … with 5,022 more rows

google_stock <- gafa_stock %>%
  filter(Symbol == "GOOG", year(Date) >= 2015) %>%
  mutate(day = row_number()) %>%
  update_tsibble(index = day, regular = TRUE)
# Filter the year of interest
google_2015 <- google_stock %>% filter(year(Date) == 2015)
google_2015

#> # A tsibble: 252 x 9 [1]
#> # Key:       Symbol [1]
#>    Symbol Date        Open  High   Low Close Adj_Close  Volume   day
#>    <chr>  <date>     <dbl> <dbl> <dbl> <dbl>     <dbl>   <dbl> <int>
#>  1 GOOG   2015-01-02  526.  528.  521.  522.      522. 1447600     1
#>  2 GOOG   2015-01-05  520.  521.  510.  511.      511. 2059800     2
#>  3 GOOG   2015-01-06  512.  513.  498.  499.      499. 2899900     3
#>  4 GOOG   2015-01-07  504.  504.  497.  498.      498. 2065100     4
#>  5 GOOG   2015-01-08  495.  501.  488.  500.      500. 3353600     5
#>  6 GOOG   2015-01-09  502.  502.  492.  493.      493. 2069400     6
#>  7 GOOG   2015-01-12  492.  493.  485.  490.      490. 2322400     7
#>  8 GOOG   2015-01-13  496.  500.  490.  493.      493. 2370500     8
#>  9 GOOG   2015-01-14  492.  500.  490.  498.      498. 2235700     9
#> 10 GOOG   2015-01-15  503.  503.  495.  499.      499. 2715800    10
#> # … with 242 more rows
…
